{
  "author": "Flywheel",
  "cite": "",
  "command": "python run.py",
  "config": {
    "debug": {
      "default": false,
      "description": "Log debug messages",
      "type": "boolean"
    },
    "percent-check": {
      "default": "auto",
      "description": "Whether to include a processing step that calculates percent of pixel within contour and drops pixels less than 50% within the contour. Intended for aTMTV-created RTStructs, not recommended for MIM-created RTStructs. If 'auto', gear will search DICOM tags and attempt to identify correct setting. (WARNING - Large contours may greatly increase processing time)",
      "enum": [
        "auto",
        "off",
        "on"
      ],
      "type": "string"
    },
    "save-binary-masks": {
      "default": true,
      "description": "Whether to save as binary masks (only 0s and 1s) or bitmasks (sums of powers of two). Default is True.",
      "type": "boolean"
    },
    "save-combined-output": {
      "default": "individual",
      "description": "Whether to save the RTStruct ROIs as individual files by label, combined, or both. Default is individual.",
      "enum": [
        "individual",
        "combined",
        "both"
      ],
      "type": "string"
    }
  },
  "custom": {
    "flywheel": {
      "show-job": true
    },
    "gear-builder": {
      "category": "converter",
      "image": "flywheel/rtstruct-to-nifti:0.2.5"
    }
  },
  "description": "Flywheel Gear for converting RTStruct ROIs to NIfTI",
  "environment": {
    "DCMCOMMIT": "fe2f26005109f396a4f828aa438241f73fc25fe8",
    "FLYWHEEL": "/flywheel/v0",
    "GPG_KEY": "7169605F62C751356D054A26A821E680E5FA6305",
    "LANG": "C.UTF-8",
    "PATH": "/usr/local/bin:/usr/local/sbin:/usr/local/bin:/usr/sbin:/usr/bin:/sbin:/bin",
    "PWD": "/flywheel/v0",
    "PYTHON_GET_PIP_SHA256": "22b849a10f86f5ddf7ce148ca2a31214504ee6c83ef626840fde6e5dcd809d11",
    "PYTHON_GET_PIP_URL": "https://github.com/pypa/get-pip/raw/c6add47b0abf67511cdfb4734771cbab403af062/public/get-pip.py",
    "PYTHON_PIP_VERSION": "23.2.1",
    "PYTHON_SETUPTOOLS_VERSION": "65.5.1",
    "PYTHON_SHA256": "24887b92e2afd4a2ac602419ad4b596372f67ac9b077190f459aba390faf5550",
    "PYTHON_VERSION": "3.12.7"
  },
  "inputs": {
    "api-key": {
      "base": "api-key",
      "read-only": false
    },
    "rtstruct": {
      "base": "file",
      "description": "RTStruct file with one or more closed contour ROIs",
      "optional": false,
      "type": {
        "enum": [
          "dicom"
        ]
      }
    },
    "source_dicom": {
      "base": "file",
      "description": "Optional: Source DICOM connected to RTStruct",
      "optional": true,
      "type": {
        "enum": [
          "dicom"
        ]
      }
    }
  },
  "label": "RTStruct to NIfTI",
  "license": "Other",
  "maintainer": "Flywheel <support@flywheel.io>",
  "name": "rtstruct-to-nifti",
  "source": "https://gitlab.com/flywheel-io/scientific-solutions/gears/rtstruct-to-nifti",
  "url": "https://gitlab.com/flywheel-io/scientific-solutions/gears/rtstruct-to-nifti",
  "version": "0.2.5"
}
