{
  "name": "d3b-peds-auto-brain-tumor-seg",
  "label": "CHOP-D3b - Automated Pediatric Brain Tumor Segmentation",
  "description": "This package provides automated brain tumor segmentation for pediatric patients using pretrained nnUNet model on multi-parametric images. This gear is generously provided by the research community. Please address questions regarding the source code or other elements of the gear to the author/maintainer. Due diligence that the code does what you expect should be conducted as usual.",
  "author": "CHOP-D3b",
  "maintainer": "D3b-TIRU <flywheel@d3b.center>",
  "source": "https://github.com/d3b-center/peds-brain-seg-pipeline-public", 
  "version": "0.1.0",
  "license": "BSD-2-Clause",
  "cite":"https://doi.org/10.3174/ajnr.A8293",
  "url":"https://github.com/d3b-center/peds-brain-seg-pipeline-public",
  "custom": {
    "gear-builder": {
      "category": "analysis",
      "image": "afam00/d3b-peds-auto-brain-tumor-seg:0.1.0"
    },
    "flywheel": {
      "suite": "Community-contributed",
      "classification": {
        "function": [
          "Image Processing - Segmentation"
        ],
        "modality": [
          "MR"
        ],
        "organ": [
          "Brain"
        ],
        "species": [
          "Human"
        ],
        "therapeutic_area": [
          "Pediatrics & Neonatology"
        ]
        }
    }
  },
  "inputs": {
    "t1ce": {
      "base": "file",
      "description": "Contrast-enhanced T1-weighted image.",
      "optional": false,
      "type": {
        "enum": [
          "nifti"
        ]
      }
    },
    "t1": {
      "base": "file",
      "description": "T1-weighted image.",
      "optional": false,
      "type": {
        "enum": [
          "nifti"
        ]
      }
    },
    "t2": {
      "base": "file",
      "description": "T2-weighted image.",
      "optional": false,
      "type": {
        "enum": [
          "nifti"
        ]
      }
    },
    "flair": {
      "base": "file",
      "description": "T2-weighted fluid attenuated inversion recovery (FLAIR) image.",
      "optional": false,
      "type": {
        "enum": [
          "nifti"
        ]
      }
    }
  },
  "config": {
    "output_file_name": {
      "description": "Name of the output segmentation file (Default: brainTumorSegmentation.nii.gz).",
      "type": "string",
      "default":"brainTumorSegmentation.nii.gz"
    }
  },
  "environment":{
    "HOME":"/root",
    "HOSTNAME":"0b633f948575",
    "MESA_GL_VERSION_OVERRIDE":"3.2",
    "PATH":"/usr/local/sbin:/usr/local/bin:/usr/sbin:/usr/bin:/sbin:/bin",
    "QT_GRAPHICSSYSTEM":"native",
    "QT_X11_NO_MITSHM":"1",
    "SHLVL":"1",
    "TERM":"xterm"
  }
}
