{
  "exchange": {
    "git-commit": "8d4fb4651439fe862af0c1e84dae78d29b45f7ef",
    "rootfs-hash": "sha256:8585aed3e68ccf89d044b226f57f20b15be4faef7adbdcf44c2ff10c0cbde9e1",
    "rootfs-url": "docker://us-docker.pkg.dev/flywheel-exchange/gear-exchange/flywheel-file-esign:0.1.1"
  },
  "gear": {
    "author": "Flywheel",
    "cite": "",
    "command": "python run.py",
    "config": {
      "code": {
        "default": "000000",
        "description": "The multi-factor authentication (MFA) code provided by the user for verification.",
        "type": "string"
      },
      "debug": {
        "default": true,
        "description": "Log debug messages",
        "type": "boolean"
      },
      "signature_purpose": {
        "default": "Initial Data Entry Completed",
        "description": "The purpose or reason for signing the file.",
        "enum": [
          "Initial Data Entry Completed",
          "Data Verification/Quality Check Completed",
          "Primary/Independent Grading Completed",
          "Secondary Grading Completed",
          "Adjudication/Consensus Completed",
          "Review for Protocol Compliance",
          "Outcome/Interpretation Review Completed",
          "Sponsor or Investigator Review Completed",
          "Data Correction/Amendment Completed",
          "Data Lock or Database Freeze",
          "Final Approval for Reporting",
          "Data Reconciliation Completed"
        ],
        "type": "string"
      },
      "verify": {
        "default": false,
        "description": "Run in verify mode. (this disables the MFA check, as it is not required.)",
        "type": "boolean"
      }
    },
    "custom": {
      "flywheel": {
        "show-job": true,
        "suite": "Analysis"
      },
      "gear-builder": {
        "category": "analysis",
        "image": "flywheel/file-esign:0.1.1"
      }
    },
    "description": "file-esign is a gear for e-signing plaintext and pdf files. It uses MFA to authenticate the user and incorporates identity and timestamp into an e-signature of the file.",
    "environment": {
      "BUILD_TIME": "2024-11-04T15:21:03Z",
      "CI_JOB_URL": "https://gitlab.com/flywheel-io/tools/img/python/-/jobs/8263113721",
      "COMMIT_REF": "main",
      "COMMIT_SHA": "1b5605d4",
      "EDITOR": "micro",
      "EGET_BIN": "/opt/bin",
      "FLYWHEEL": "/flywheel/v0",
      "GPG_KEY": "7169605F62C751356D054A26A821E680E5FA6305",
      "LANG": "C.UTF-8",
      "PATH": "/venv/bin:/usr/local/bin:/usr/local/sbin:/usr/local/bin:/usr/sbin:/usr/bin:/sbin:/bin:/opt/bin",
      "PWD": "/flywheel/v0",
      "PYTHONPATH": "/venv/lib/python/site-packages",
      "PYTHON_GET_PIP_SHA256": "bc37786ec99618416cc0a0ca32833da447f4d91ab51d2c138dd15b7af21e8e9a",
      "PYTHON_GET_PIP_URL": "https://github.com/pypa/get-pip/raw/def4aec84b261b939137dd1c69eff0aabb4a7bf4/public/get-pip.py",
      "PYTHON_PIP_VERSION": "24.2",
      "PYTHON_SHA256": "24887b92e2afd4a2ac602419ad4b596372f67ac9b077190f459aba390faf5550",
      "PYTHON_VERSION": "3.12.7",
      "SHLVL": "1",
      "TZ": "UTC",
      "UV_NO_CACHE": "1",
      "VIRTUAL_ENV": "/venv",
      "_": "/bin/printenv"
    },
    "inputs": {
      "api-key": {
        "base": "api-key",
        "read-only": false
      },
      "input-file": {
        "base": "file",
        "description": "File to sign",
        "optional": false
      }
    },
    "label": "File E-Sign",
    "license": "Other",
    "maintainer": "Flywheel <support@flywheel.io>",
    "name": "file-esign",
    "output_configuration": {
      "enforce_file_version_match": true
    },
    "source": "https://gitlab.com/flywheel-io/scientific-solutions/gears/file-esign",
    "url": "https://gitlab.com/flywheel-io/scientific-solutions/gears/file-esign",
    "version": "0.1.1"
  },
  "invocation-schema": {
    "$schema": "http://json-schema.org/draft-04/schema#",
    "properties": {
      "config": {
        "additionalProperties": false,
        "properties": {
          "code": {
            "default": "000000",
            "type": "string"
          },
          "debug": {
            "default": true,
            "type": "boolean"
          },
          "signature_purpose": {
            "default": "Initial Data Entry Completed",
            "enum": [
              "Initial Data Entry Completed",
              "Data Verification/Quality Check Completed",
              "Primary/Independent Grading Completed",
              "Secondary Grading Completed",
              "Adjudication/Consensus Completed",
              "Review for Protocol Compliance",
              "Outcome/Interpretation Review Completed",
              "Sponsor or Investigator Review Completed",
              "Data Correction/Amendment Completed",
              "Data Lock or Database Freeze",
              "Final Approval for Reporting",
              "Data Reconciliation Completed"
            ],
            "type": "string"
          },
          "verify": {
            "default": false,
            "type": "boolean"
          }
        },
        "required": [
          "code",
          "debug",
          "signature_purpose",
          "verify"
        ],
        "type": "object"
      },
      "inputs": {
        "properties": {
          "api-key": {
            "type": "object"
          },
          "input-file": {
            "properties": {},
            "type": "object"
          }
        },
        "required": [
          "api-key",
          "input-file"
        ],
        "type": "object"
      }
    },
    "required": [
      "config",
      "inputs"
    ],
    "title": "Invocation manifest for File E-Sign",
    "type": "object"
  }
}
