{
  "gear": {
    "author": "Flywheel support@flywheel.io",
    "cite": "",
    "command": "cd /opt/monai ; /opt/conda/bin/python app/x-ray-body-part-classifier-map.py -i /flywheel/v0/input/input-file/ -o /flywheel/v0/output/ -m models/x-ray-body-part-classifier/x-ray-body-part-classifier.zip",
    "config": {
      "save-json": {
        "type": "boolean",
        "default": false,
        "description": "use flag to save json containing model results."
      },
      "debug": {
        "type": "boolean",
        "default": false,
        "description": "Enable debug mode."
      }
    },
    "description": "This gear wraps a model for classifying 20 body parts on x-ray images. These are: \n'Ankle', 'Calcaneus', 'Chest', 'Elbow', 'Femur', 'Fibula&Tibia', 'Finger', 'Foot',\n'Hand', 'Head', 'Hip', 'Humerus', 'Knee', 'Mandible', 'Pelvis', 'Radius&Ulna',\n'Shoulder&Shoulder', 'Spine', 'Cervical', 'Toes', 'Wrist'.",
    "environment": {},
    "custom": {
      "flywheel": {
        "show-job": true
      },
      "gear-builder": {
        "image": "flywheel/x-ray-body-part-classifier:0.1.0",
        "category": "utility"
      }
    },
    "inputs": {
      "input-file": {
        "base": "file",
        "optional": false,
        "type": {
          "enum": [
            "image",
            "nifti",
            "dicom"
          ]
        },
        "description": "Input file for the gear can be Nifti, Dicom or PNG"
      }
    },
    "label": "X-ray Body Part Classifier",
    "name": "x-ray-body-part-classifier",
    "maintainer": "Flywheel <support@flywheel.io>",
    "source": "https://gitlab.com/flywheel-io/scientific-solutions/gears/x-ray-body-part-classifier",
    "url": "https://gitlab.com/flywheel-io/scientific-solutions/gears/x-ray-body-part-classifier",
    "license": "MIT",
    "version": "0.1.0"
  },
  "exchange": {
    "git-commit": "1de6f346b973f3271f6583ac5d428a85c6b18b55",
    "rootfs-hash": "sha384:5a1a915339a3f6f9333c98ae635f7a411733f00c167dc2cd1487c9b6f0c9a898e5ea876f1b32a66263e029b02793b9a7",
    "rootfs-url": "https://storage.googleapis.com/flywheel-exchange/flywheel-x-ray-body-part-classifier-sha384-5a1a915339a3f6f9333c98ae635f7a411733f00c167dc2cd1487c9b6f0c9a898e5ea876f1b32a66263e029b02793b9a7.tgz"
  },
  "invocation-schema": {
    "title": "Invocation manifest for X-ray Body Part Classifier",
    "$schema": "http://json-schema.org/draft-04/schema#",
    "type": "object",
    "properties": {
      "config": {
        "type": "object",
        "properties": {
          "save-json": {
            "type": "boolean",
            "default": false
          },
          "debug": {
            "type": "boolean",
            "default": false
          }
        },
        "required": [
          "save-json",
          "debug"
        ]
      },
      "inputs": {
        "type": "object",
        "properties": {
          "input-file": {
            "type": "object",
            "properties": {
              "type": {
                "enum": [
                  "image",
                  "nifti",
                  "dicom"
                ]
              }
            }
          }
        },
        "required": [
          "input-file"
        ]
      }
    },
    "required": [
      "config",
      "inputs"
    ]
  }
}
