{
  "exchange": {
    "git-commit": "6c52031a5e759600e8c3cb60b8901900d3daf2df",
    "rootfs-hash": "sha256:e6e3916a5330712d5ad77e9d999800218a37a3ca480d861a8cb606a79865c2e6",
    "rootfs-url": "docker://us-docker.pkg.dev/flywheel-exchange/gear-exchange/flywheel-deid-export:1.5.1"
  },
  "gear": {
    "author": "Flywheel, Inc.",
    "command": "python /flywheel/v0/run.py",
    "config": {
      "debug": {
        "default": false,
        "description": "Enable debug log if checked",
        "type": "boolean"
      },
      "overwrite_files": {
        "default": true,
        "description": "If true, existing files in destination containers will be overwritten if a file to be exported has the same filename.",
        "type": "boolean"
      },
      "project_path": {
        "description": "The resolver path of the destination project (E.g., 'flywheel/test').",
        "optional": false,
        "type": "string"
      }
    },
    "custom": {
      "flywheel": {
        "classification": {
          "function": [
            "Curation"
          ],
          "modality": [
            "Any"
          ],
          "organ": [
            "Any"
          ],
          "species": [
            "Phantom",
            "Human",
            "Animal",
            "Other"
          ],
          "therapeutic_area": [
            "Any"
          ]
        },
        "suite": "Curation"
      },
      "gear-builder": {
        "category": "analysis",
        "image": "flywheel/deid-export:1.5.1"
      }
    },
    "description": "Profile-based anonymization and export of files within a project. Files within the source project will be anonymized (according to a required template) and exported to a specified project. Output is a csv file reporting the status of all exported items.",
    "environment": {
      "FLYWHEEL": "/flywheel/v0",
      "GPG_KEY": "E3FF2839C048B25C084DEBE9B26995E310250568",
      "LANG": "C.UTF-8",
      "PATH": "/usr/local/bin:/usr/local/sbin:/usr/local/bin:/usr/sbin:/usr/bin:/sbin:/bin",
      "PWD": "/flywheel/v0",
      "PYTHONPATH": "/flywheel/v0",
      "PYTHON_GET_PIP_SHA256": "394be00f13fa1b9aaa47e911bdb59a09c3b2986472130f30aa0bfaf7f3980637",
      "PYTHON_GET_PIP_URL": "https://github.com/pypa/get-pip/raw/d5cb0afaf23b8520f1bbcfed521017b4a95f5c01/public/get-pip.py",
      "PYTHON_PIP_VERSION": "22.0.4",
      "PYTHON_SETUPTOOLS_VERSION": "57.5.0",
      "PYTHON_VERSION": "3.8.16"
    },
    "inputs": {
      "api-key": {
        "base": "api-key",
        "read-only": false
      },
      "deid_profile": {
        "base": "file",
        "description": "A Flywheel de-identification profile specifying the de-identification actions to perform.",
        "optional": false,
        "type": {
          "enum": [
            "source code"
          ]
        }
      },
      "subject_csv": {
        "base": "file",
        "description": "A CSV file that contains mapping values to apply for subjects during de-identification.",
        "optional": true,
        "type": {
          "enum": [
            "source code"
          ]
        }
      }
    },
    "label": "De-identified Export",
    "license": "MIT",
    "maintainer": "Flywheel <support@flywheel.io>",
    "name": "deid-export",
    "source": "https://gitlab.com/flywheel-io/scientific-solutions/gears/deid-export/-/blob/main/README.md",
    "url": "https://gitlab.com/flywheel-io/scientific-solutions/gears/deid-export",
    "version": "1.5.1"
  },
  "invocation-schema": {
    "$schema": "http://json-schema.org/draft-04/schema#",
    "properties": {
      "config": {
        "additionalProperties": false,
        "properties": {
          "debug": {
            "default": false,
            "type": "boolean"
          },
          "overwrite_files": {
            "default": true,
            "type": "boolean"
          },
          "project_path": {
            "type": "string"
          }
        },
        "required": [
          "project_path",
          "overwrite_files",
          "debug"
        ],
        "type": "object"
      },
      "inputs": {
        "properties": {
          "api-key": {
            "type": "object"
          },
          "deid_profile": {
            "properties": {
              "type": {
                "enum": [
                  "source code"
                ]
              }
            },
            "type": "object"
          },
          "subject_csv": {
            "properties": {
              "type": {
                "enum": [
                  "source code"
                ]
              }
            },
            "type": "object"
          }
        },
        "required": [
          "api-key",
          "deid_profile"
        ],
        "type": "object"
      }
    },
    "required": [
      "config",
      "inputs"
    ],
    "title": "Invocation manifest for De-identified Export",
    "type": "object"
  }
}
