{
  "exchange": {
    "git-commit": "a76bde2dcf156759aa5ad4ce43d9a340189ba9ff",
    "rootfs-hash": "sha256:288964f206ff4ff612f50a9c2fa3cb4de61cb190e7544b468bffbbaa8405daa2",
    "rootfs-url": "docker://us-docker.pkg.dev/flywheel-exchange/gear-exchange/flywheel-cow-says:2.3.2"
  },
  "gear": {
    "author": "Flywheel",
    "cite": "",
    "command": "python run.py",
    "config": {
      "animal": {
        "default": "cow",
        "enum": [
          "beavis",
          "char_names",
          "chars",
          "cheese",
          "cow",
          "daemon",
          "dragon",
          "ghostbusters",
          "kitty",
          "main",
          "meow",
          "milk",
          "pig",
          "stegosaurus",
          "stimpy",
          "turkey",
          "turtle",
          "tux"
        ],
        "type": "string"
      },
      "debug": {
        "default": false,
        "description": "Log debug messages",
        "type": "boolean"
      }
    },
    "custom": {
      "flywheel": {
        "classification": {
          "classification": [],
          "components": [
            "cowsay"
          ],
          "dataset": [],
          "keywords": [
            "template"
          ],
          "modality": [],
          "species": [
            "Animal"
          ],
          "type": []
        },
        "show-job": true,
        "suite": "Curation"
      },
      "gear-builder": {
        "category": "converter",
        "image": "flywheel/poetry-cow-says:2.3.2"
      }
    },
    "description": "The cowsays gear that makes animals speak. ",
    "environment": {},
    "inputs": {
      "text-input": {
        "base": "file",
        "description": "Text file for the animal."
      }
    },
    "label": "Cow-says gear",
    "license": "MIT",
    "maintainer": "Flywheel <support@flywheel.io>",
    "name": "cow-says",
    "source": "https://github.com/flywheel-apps/templates/poetry-cow-says",
    "url": "https://github.com/flywheel-apps/templates/poetry-cow-says",
    "version": "2.3.2"
  },
  "invocation-schema": {
    "$schema": "http://json-schema.org/draft-04/schema#",
    "properties": {
      "config": {
        "additionalProperties": false,
        "properties": {
          "animal": {
            "default": "cow",
            "enum": [
              "beavis",
              "char_names",
              "chars",
              "cheese",
              "cow",
              "daemon",
              "dragon",
              "ghostbusters",
              "kitty",
              "main",
              "meow",
              "milk",
              "pig",
              "stegosaurus",
              "stimpy",
              "turkey",
              "turtle",
              "tux"
            ],
            "type": "string"
          },
          "debug": {
            "default": false,
            "type": "boolean"
          }
        },
        "required": [
          "animal",
          "debug"
        ],
        "type": "object"
      },
      "inputs": {
        "properties": {
          "text-input": {
            "properties": {},
            "type": "object"
          }
        },
        "required": [
          "text-input"
        ],
        "type": "object"
      }
    },
    "required": [
      "config",
      "inputs"
    ],
    "title": "Invocation manifest for Cow-says gear",
    "type": "object"
  }
}
