{
  "exchange": {
    "git-commit": "dbf73f860b9f720f3949105217e5da4999df7d39",
    "rootfs-hash": "sha256:64090d6b5bd7318db617ba4e1b17a8a85d528c8a35e6d9707cfc3b790ae9d5d7",
    "rootfs-url": "docker://us-docker.pkg.dev/flywheel-exchange/gear-exchange/flywheel-file-validator:0.2.3"
  },
  "gear": {
    "author": "Flywheel",
    "cite": "",
    "command": "python run.py",
    "config": {
      "add_parents": {
        "default": false,
        "description": "If validating Flywheel Objects, add the parent containers of the object to the schema for validation",
        "type": "boolean"
      },
      "debug": {
        "default": false,
        "description": "Log debug messages",
        "type": "boolean"
      },
      "tag": {
        "default": "file-validator",
        "description": "Tag to attach to files that gear runs on upon run completion",
        "type": "string"
      },
      "validation_level": {
        "default": "Validate File Contents",
        "description": "Select if validation should run on the file or the flywheel representation of the file.  'Validate File Contents' will read the input file and run validation on it, 'Validate Flywheel Objects' will load the json representation of the file in flywheel, including the parent container objects of the file",
        "enum": [
          "Validate File Contents",
          "Validate Flywheel Objects"
        ],
        "type": "string"
      }
    },
    "custom": {
      "flywheel": {
        "classification": {
          "function": [
            "Utility"
          ],
          "modality": [
            "Any"
          ],
          "organ": [
            "Other"
          ],
          "species": [
            "Phantom",
            "Human",
            "Animal",
            "Other"
          ],
          "therapeutic_area": [
            "Any"
          ]
        },
        "show-job": true,
        "suite": "Utility"
      },
      "gear-builder": {
        "category": "qa",
        "image": "flywheel/file-validator:0.2.3"
      }
    },
    "description": "Validates a file based on a provided validation schema",
    "environment": {},
    "inputs": {
      "api-key": {
        "base": "api-key"
      },
      "input_file": {
        "base": "file",
        "description": "The file to validate.",
        "optional": false
      },
      "validation_schema": {
        "base": "file",
        "description": "The schema to use to validate the file"
      }
    },
    "label": "File Validator",
    "license": "Other",
    "maintainer": "Flywheel <support@flywheel.io>",
    "name": "file-validator",
    "source": "https://gitlab.com/flywheel-io/scientific-solutions/gears/file-validator.git",
    "url": "https://gitlab.com/flywheel-io/scientific-solutions/gears/file-validator.git",
    "version": "0.2.3"
  },
  "invocation-schema": {
    "$schema": "http://json-schema.org/draft-04/schema#",
    "properties": {
      "config": {
        "additionalProperties": false,
        "properties": {
          "add_parents": {
            "default": false,
            "type": "boolean"
          },
          "debug": {
            "default": false,
            "type": "boolean"
          },
          "tag": {
            "default": "file-validator",
            "type": "string"
          },
          "validation_level": {
            "default": "Validate File Contents",
            "enum": [
              "Validate File Contents",
              "Validate Flywheel Objects"
            ],
            "type": "string"
          }
        },
        "required": [
          "add_parents",
          "debug",
          "tag",
          "validation_level"
        ],
        "type": "object"
      },
      "inputs": {
        "properties": {
          "api-key": {
            "type": "object"
          },
          "input_file": {
            "properties": {},
            "type": "object"
          },
          "validation_schema": {
            "properties": {},
            "type": "object"
          }
        },
        "required": [
          "api-key",
          "input_file",
          "validation_schema"
        ],
        "type": "object"
      }
    },
    "required": [
      "config",
      "inputs"
    ],
    "title": "Invocation manifest for File Validator",
    "type": "object"
  }
}
