{
  "exchange": {
    "git-commit": "aead3414cf6de5d0261bce30c2bd62877be2a94b",
    "rootfs-hash": "sha256:18b1c764af2f5ae0c82a77cb7b059090d3e773a6dd1c9923ab8492fb06f86d81",
    "rootfs-url": "docker://us-docker.pkg.dev/flywheel-exchange/gear-exchange/flywheel-file-classifier:0.6.9"
  },
  "gear": {
    "author": "Flywheel",
    "cite": "",
    "command": "python run.py",
    "config": {
      "debug": {
        "default": false,
        "description": "Log debug messages",
        "type": "boolean"
      },
      "remove_existing": {
        "default": false,
        "description": "Clear existing classification.",
        "type": "boolean"
      },
      "tag": {
        "default": "file-classifier",
        "description": "The tag to be added on input file upon run completion.",
        "type": "string"
      },
      "validate": {
        "default": false,
        "description": "If true the gear will validate the classification schema.",
        "type": "boolean"
      }
    },
    "custom": {
      "flywheel": {
        "classification": {
          "function": [
            "Utility"
          ],
          "modality": [
            "MR",
            "PT",
            "MG",
            "CT"
          ],
          "organ": [
            "Any"
          ],
          "species": [
            "Phantom",
            "Human",
            "Animal"
          ],
          "therapeutic_area": [
            "Any"
          ]
        },
        "show-job": true,
        "suite": "Utility"
      },
      "gear-builder": {
        "category": "utility",
        "image": "flywheel/file-classifier:0.6.9"
      }
    },
    "description": "Generic file classifier. This gear update the classification of a file based on the metadata attached to it, and therefore should only run AFTER gears which populate metadata on the file, such as file-metadata-curator. The gear takes as input a file, and an optional classification profile. The gear tags the input file upon completion.",
    "environment": {
      "COMMIT": "main.a30a2597",
      "COMMIT_TIME": "2022-06-21T13:24:40+00:00",
      "EDITOR": "micro",
      "EGET_BIN": "/opt/bin",
      "FLYWHEEL": "/flywheel/v0",
      "GJO_VERSION": "1.0.2",
      "GPG_KEY": "A035C8C19219BA821ECEA86B64E628F8D684696D",
      "JQ_VERSION": "jq-1.6",
      "LANG": "C.UTF-8",
      "MICRO_VERSION": "2.0.10",
      "MUSTACHE_VERSION": "1.3.1",
      "PATH": "/venv/bin:/opt/bin:/usr/local/bin:/usr/local/sbin:/usr/local/bin:/usr/sbin:/usr/bin:/sbin:/bin",
      "PIP_NO_CACHE_DIR": "0",
      "POETRY_HOME": "/opt/poetry",
      "POETRY_VERSION": "1.1.13",
      "POETRY_VIRTUALENVS_CREATE": "false",
      "PROMETHEUS_MULTIPROC_DIR": "/var/metrics",
      "PWD": "/flywheel/v0",
      "PYSITE": "/usr/local/lib/python3.10/site-packages",
      "PYTHONPATH": "/venv/lib/python/site-packages",
      "PYTHON_GET_PIP_SHA256": "6fb7b781206356f45ad79efbb19322caa6c2a5ad39092d0d44d0fec94117e118",
      "PYTHON_GET_PIP_URL": "https://github.com/pypa/get-pip/raw/66d8a0f637083e2c3ddffc0cb1e65ce126afb856/public/get-pip.py",
      "PYTHON_PIP_VERSION": "23.0.1",
      "PYTHON_SETUPTOOLS_VERSION": "65.5.1",
      "PYTHON_VERSION": "3.10.14",
      "SETUPTOOLS_USE_DISTUTILS": "stdlib",
      "SHLVL": "0",
      "TZ": "UTC",
      "UV_NO_CACHE": "1",
      "VIRTUAL_ENV": "/venv",
      "_": "/bin/printenv"
    },
    "inputs": {
      "api-key": {
        "base": "api-key",
        "read-only": false
      },
      "file-input": {
        "base": "file",
        "description": "File to classify"
      },
      "profile": {
        "base": "file",
        "description": "Optional classification profile.",
        "optional": true,
        "type": {
          "enum": [
            "source code"
          ]
        }
      }
    },
    "label": "File Classifier",
    "license": "MIT",
    "maintainer": "Flywheel <support@flywheel.io>",
    "name": "file-classifier",
    "output_configuration": {
      "enforce_file_version_match": true
    },
    "source": "https://gitlab.com/flywheel-io/scientific-solutions/gears/file-classifier.git",
    "url": "https://gitlab.com/flywheel-io/scientific-solutions/gears/file-classifier",
    "version": "0.6.9"
  },
  "invocation-schema": {
    "$schema": "http://json-schema.org/draft-04/schema#",
    "properties": {
      "config": {
        "additionalProperties": false,
        "properties": {
          "debug": {
            "default": false,
            "type": "boolean"
          },
          "remove_existing": {
            "default": false,
            "type": "boolean"
          },
          "tag": {
            "default": "file-classifier",
            "type": "string"
          },
          "validate": {
            "default": false,
            "type": "boolean"
          }
        },
        "required": [
          "debug",
          "remove_existing",
          "tag",
          "validate"
        ],
        "type": "object"
      },
      "inputs": {
        "properties": {
          "api-key": {
            "type": "object"
          },
          "file-input": {
            "properties": {},
            "type": "object"
          },
          "profile": {
            "properties": {
              "type": {
                "enum": [
                  "source code"
                ]
              }
            },
            "type": "object"
          }
        },
        "required": [
          "api-key",
          "file-input"
        ],
        "type": "object"
      }
    },
    "required": [
      "config",
      "inputs"
    ],
    "title": "Invocation manifest for File Classifier",
    "type": "object"
  }
}
