{
  "exchange": {
    "git-commit": "6c52031a5e759600e8c3cb60b8901900d3daf2df",
    "rootfs-hash": "sha256:0da6a6793c85686cacb1440d9ebbd06da0f9ae27b7b96b225b4854e85109b437",
    "rootfs-url": "docker://us-docker.pkg.dev/flywheel-exchange/gear-exchange/flywheel-fsl-fslreorient2std:1.0.0"
  },
  "gear": {
    "author": "Analysis Group, FMRIB, Oxford, UK.",
    "config": {
      "output_name": {
        "description": "Name to be used for the output NIfTI file. OPTIONAL: By default the gear will use <inputfile>_std.nii.gz.",
        "optional": true,
        "type": "string"
      }
    },
    "custom": {
      "docker-image": "flywheel/fsl-fslreorient2std:1.0.0",
      "flywheel": {
        "classification": {
          "function": [
            "Image Processing - Functional",
            "Image Processing - Diffusion",
            "Image Processing - Structural"
          ],
          "modality": [
            "MR"
          ],
          "organ": [
            "Brain"
          ],
          "species": [
            "Human"
          ],
          "therapeutic_area": [
            "Neurology",
            "Psychiatry/Psychology"
          ]
        },
        "suite": "Image Processing"
      },
      "gear-builder": {
        "category": "utility"
      }
    },
    "description": "fslreorient2std is a tool for reorienting the image to match the approximate orientation of the standard template images (MNI152). It only applies 0, 90, 180 or 270 degree rotations. It is not a registration tool. It requires NIfTI images with valid orientation information in them (seen by valid labels in FSLView).  This tool assumes the labels are correct - if not, fix that before using this Gear.",
    "flywheel": {
      "suite": "FSL"
    },
    "inputs": {
      "nifti": {
        "base": "file",
        "description": "Input NIfTI file.",
        "type": {
          "enum": [
            "nifti"
          ]
        }
      }
    },
    "label": "FSL: fslreorient2std - Reorient Image to Standard Template",
    "license": "Other",
    "maintainer": "Flywheel <support@flywheel.io>",
    "name": "fsl-fslreorient2std",
    "source": "https://fsl.fmrib.ox.ac.uk/fsl/fslwiki/Fslutils",
    "url": "https://github.com/flywheel-apps/fsl-fslreorient2std",
    "version": "1.0.0"
  },
  "invocation-schema": {
    "$schema": "http://json-schema.org/draft-04/schema#",
    "properties": {
      "config": {
        "additionalProperties": false,
        "properties": {
          "output_name": {
            "type": "string"
          }
        },
        "type": "object"
      },
      "inputs": {
        "properties": {
          "nifti": {
            "properties": {
              "type": {
                "enum": [
                  "nifti"
                ]
              }
            },
            "type": "object"
          }
        },
        "required": [
          "nifti"
        ],
        "type": "object"
      }
    },
    "required": [
      "config",
      "inputs"
    ],
    "title": "Invocation manifest for FSL: fslreorient2std - Reorient Image to Standard Template",
    "type": "object"
  }
}
