{
  "exchange": {
    "git-commit": "e04d14601d9149e027c9577e70642520c2bf9a03",
    "rootfs-hash": "sha256:906a03bb56079b5c66952a19567ad07523f747677286717661e0c42665c01178",
    "rootfs-url": "docker://us-docker.pkg.dev/flywheel-exchange/gear-exchange/flywheel-img-to-dicom:0.1.0"
  },
  "gear": {
    "author": "Flywheel",
    "cite": "",
    "command": "python /flywheel/v0/run.py",
    "config": {
      "debug": {
        "default": false,
        "description": "Log debug messages",
        "type": "boolean"
      }
    },
    "custom": {
      "flywheel": {
        "classification": {
          "function": [
            "Conversion"
          ],
          "modality": [
            "Any"
          ],
          "organ": [
            "Any"
          ],
          "species": [
            "Any"
          ],
          "therapeutic_area": [
            "Any"
          ]
        },
        "show-job": true,
        "suite": "Conversion"
      },
      "gear-builder": {
        "category": "converter",
        "image": "flywheel/img-to-dicom:0.1.0"
      }
    },
    "description": "Encapsulates multiple two-dimensional image formats (e.g. png, jpg, gif, bmp) in a dicom archive.",
    "environment": {},
    "inputs": {
      "image": {
        "base": "file",
        "description": "Image to wrap in dicom format.",
        "optional": false
      }
    },
    "label": "Image to DICOM",
    "license": "MIT",
    "maintainer": "Flywheel <support@flywheel.io>",
    "name": "img-to-dicom",
    "source": "https://gitlab.com/flywheel-io/flywheel-apps/templates/skeleton",
    "url": "https://gitlab.com/flywheel-io/flywheel-apps/templates/skeleton",
    "version": "0.1.0"
  },
  "invocation-schema": {
    "$schema": "http://json-schema.org/draft-04/schema#",
    "properties": {
      "config": {
        "additionalProperties": false,
        "properties": {
          "debug": {
            "default": false,
            "type": "boolean"
          }
        },
        "required": [
          "debug"
        ],
        "type": "object"
      },
      "inputs": {
        "properties": {
          "image": {
            "properties": {},
            "type": "object"
          }
        },
        "required": [
          "image"
        ],
        "type": "object"
      }
    },
    "required": [
      "config",
      "inputs"
    ],
    "title": "Invocation manifest for Image to DICOM",
    "type": "object"
  }
}
