{
  "exchange": {
    "git-commit": "6c52031a5e759600e8c3cb60b8901900d3daf2df",
    "rootfs-hash": "sha256:506d587a50bb0a92ab39869f296cad405262e53b0079aed58a9a0605108a22e1",
    "rootfs-url": "docker://us-docker.pkg.dev/flywheel-exchange/gear-exchange/flywheel-fastsurfer:1.0.4_v1.1.0"
  },
  "gear": {
    "author": "Flywheel",
    "cite": "Henschel L, Conjeti S, Estrada S, Diers K, Fischl B, Reuter M, FastSurfer - A fast and accurate deep learning based neuroimaging pipeline, NeuroImage 219 (2020), 117012",
    "command": "python run.py",
    "config": {
      "debug": {
        "default": false,
        "description": "Enable debug mode.",
        "type": "boolean"
      },
      "use-gpu": {
        "default": true,
        "description": "Use GPU for computing the FastSurfer segmentation. Gear will default to CPU if no GPU is available.",
        "type": "boolean"
      }
    },
    "custom": {
      "flywheel": {
        "classification": {
          "function": [
            "Image Processing - Structural"
          ],
          "modality": [
            "MR"
          ],
          "organ": [
            "Brain"
          ],
          "species": [
            "Human"
          ],
          "therapeutic_area": [
            "Neurology",
            "Oncology",
            "Psychiatry/Psychology"
          ]
        },
        "suite": "Image Processing"
      },
      "gear-builder": {
        "category": "analysis",
        "image": "flywheel/fastsurfer:1.0.4_v1.1.0"
      }
    },
    "description": "FastSurferCNN - an advanced deep learning architecture capable of whole brain segmentation into 95 classes in under 1 minute, mimicking FreeSurfer anatomical segmentation and cortical parcellation (DKTatlas)",
    "environment": {
      "FLYWHEEL": "/flywheel/v0",
      "NVIDIA_DRIVER_CAPABILITIES": "compute,utility",
      "NVIDIA_REQUIRE_CUDA": "cuda>=11.2 brand=tesla,driver>=418,driver<419 brand=tesla,driver>=440,driver<441 driver>=450",
      "NVIDIA_VISIBLE_DEVICES": "all",
      "PATH": "/usr/local/nvidia/bin:/usr/local/cuda/bin:/usr/local/sbin:/usr/local/bin:/usr/sbin:/usr/bin:/sbin:/bin:/FastSurferCNN:/venv/bin/"
    },
    "inputs": {
      "T1w": {
        "base": "file",
        "description": "Input 3D-T1w nifti in zipped format",
        "optional": false,
        "type": {
          "enum": [
            "nifti"
          ]
        }
      }
    },
    "label": "Fast Surfer",
    "license": "Other",
    "maintainer": "Flywheel <support@flywheel.io>",
    "name": "fastsurfer",
    "source": "https://github.com/Deep-MI/FastSurfer",
    "url": "https://gitlab.com/flywheel-io/scientific-solutions/gears/fastsurfer",
    "version": "1.0.4_v1.1.0"
  },
  "invocation-schema": {
    "$schema": "http://json-schema.org/draft-04/schema#",
    "properties": {
      "config": {
        "additionalProperties": false,
        "properties": {
          "debug": {
            "default": false,
            "type": "boolean"
          },
          "use-gpu": {
            "default": true,
            "type": "boolean"
          }
        },
        "required": [
          "use-gpu",
          "debug"
        ],
        "type": "object"
      },
      "inputs": {
        "properties": {
          "T1w": {
            "properties": {
              "type": {
                "enum": [
                  "nifti"
                ]
              }
            },
            "type": "object"
          }
        },
        "required": [
          "T1w"
        ],
        "type": "object"
      }
    },
    "required": [
      "config",
      "inputs"
    ],
    "title": "Invocation manifest for Fast Surfer",
    "type": "object"
  }
}
