{
  "exchange": {
    "git-commit": "d06820a73619af0244f35fd51d771a558cc6dea0",
    "rootfs-hash": "sha256:e604cc5172f409ff4b4bdee9fbaafb5e5960cc4a0149cc5bd3dabbd7bd0663d4",
    "rootfs-url": "docker://us-docker.pkg.dev/flywheel-exchange/gear-exchange/flywheel-img-to-dicom:0.1.1"
  },
  "gear": {
    "author": "Flywheel",
    "cite": "",
    "command": "python /flywheel/v0/run.py",
    "config": {
      "debug": {
        "default": false,
        "description": "Log debug messages",
        "type": "boolean"
      }
    },
    "custom": {
      "flywheel": {
        "classification": {
          "function": [
            "Conversion"
          ],
          "modality": [
            "Any"
          ],
          "organ": [
            "Any"
          ],
          "species": [
            "Any"
          ],
          "therapeutic_area": [
            "Any"
          ]
        },
        "show-job": true,
        "suite": "Conversion"
      },
      "gear-builder": {
        "category": "converter",
        "image": "flywheel/img-to-dicom:0.1.1"
      }
    },
    "description": "Encapsulates multiple two-dimensional image formats (e.g. png, jpg, gif, bmp) in a dicom archive.",
    "environment": {
      "FLYWHEEL": "/flywheel/v0",
      "GPG_KEY": "A035C8C19219BA821ECEA86B64E628F8D684696D",
      "LANG": "C.UTF-8",
      "PATH": "/usr/local/bin:/usr/local/sbin:/usr/local/bin:/usr/sbin:/usr/bin:/sbin:/bin",
      "PWD": "/flywheel/v0",
      "PYTHON_VERSION": "3.10.15"
    },
    "inputs": {
      "api-key": {
        "base": "api-key",
        "read-only": true
      },
      "image": {
        "base": "file",
        "description": "Image to wrap in dicom format.",
        "optional": false
      }
    },
    "label": "Image to DICOM",
    "license": "MIT",
    "maintainer": "Flywheel <support@flywheel.io>",
    "name": "img-to-dicom",
    "source": "https://gitlab.com/flywheel-io/flywheel-apps/templates/skeleton",
    "url": "https://gitlab.com/flywheel-io/flywheel-apps/templates/skeleton",
    "version": "0.1.1"
  },
  "invocation-schema": {
    "$schema": "http://json-schema.org/draft-04/schema#",
    "properties": {
      "config": {
        "additionalProperties": false,
        "properties": {
          "debug": {
            "default": false,
            "type": "boolean"
          }
        },
        "required": [
          "debug"
        ],
        "type": "object"
      },
      "inputs": {
        "properties": {
          "api-key": {
            "type": "object"
          },
          "image": {
            "properties": {},
            "type": "object"
          }
        },
        "required": [
          "api-key",
          "image"
        ],
        "type": "object"
      }
    },
    "required": [
      "config",
      "inputs"
    ],
    "title": "Invocation manifest for Image to DICOM",
    "type": "object"
  }
}
