{
  "exchange": {
    "git-commit": "2901b05d1520811db82c7f1d22161c96651098e5",
    "rootfs-hash": "sha256:21edf83ed14f74103942e1d860e88a9bc086081bcb154f35d44d710ac65335f2",
    "rootfs-url": "docker://us-docker.pkg.dev/flywheel-exchange/gear-exchange/flywheel-form-and-annotations-exporter:0.1.5"
  },
  "gear": {
    "author": "Flywheel",
    "cite": "",
    "command": "/flywheel/v0/run.py",
    "config": {
      "annotations-scope": {
        "default": "task",
        "description": "The scope of the exported annotations.",
        "enum": [
          "task",
          "non-task",
          "both",
          "none"
        ],
        "type": "string"
      },
      "debug": {
        "default": false,
        "description": "Log debug messages",
        "type": "boolean"
      },
      "form-responses-scope": {
        "default": "task",
        "description": "The scope of the form responses.",
        "enum": [
          "task",
          "none"
        ],
        "type": "string"
      },
      "protocol_name": {
        "description": "The name of the protocol to export data from.",
        "optional": true,
        "type": "string"
      },
      "read_timeout": {
        "default": 60,
        "description": "The maximum time in seconds to wait for a response from the server.",
        "type": "integer"
      }
    },
    "custom": {
      "flywheel": {
        "classification": {
          "function": [
            "Export"
          ],
          "modality": [
            "Any"
          ],
          "organ": [
            "Any"
          ],
          "species": [
            "Phantom",
            "Human",
            "Animal",
            "Other"
          ],
          "therapeutic_area": [
            "Any"
          ]
        },
        "suite": "Export"
      },
      "gear-builder": {
        "category": "analysis",
        "image": "flywheel/form-and-annotations-exporter:0.1.5"
      }
    },
    "description": "Export Form Responses and/or Annotations to CSV file(s).",
    "environment": {
      "FLYWHEEL": "/flywheel/v0",
      "GPG_KEY": "E3FF2839C048B25C084DEBE9B26995E310250568",
      "LANG": "C.UTF-8",
      "PATH": "/usr/local/bin:/usr/local/sbin:/usr/local/bin:/usr/sbin:/usr/bin:/sbin:/bin",
      "PWD": "/flywheel/v0",
      "PYTHON_GET_PIP_SHA256": "6fb7b781206356f45ad79efbb19322caa6c2a5ad39092d0d44d0fec94117e118",
      "PYTHON_GET_PIP_URL": "https://github.com/pypa/get-pip/raw/66d8a0f637083e2c3ddffc0cb1e65ce126afb856/public/get-pip.py",
      "PYTHON_PIP_VERSION": "23.0.1",
      "PYTHON_SETUPTOOLS_VERSION": "58.1.0",
      "PYTHON_VERSION": "3.9.19"
    },
    "inputs": {
      "api-key": {
        "base": "api-key",
        "read-only": false
      }
    },
    "label": "Form and Annotation Exporter",
    "license": "MIT",
    "maintainer": "Flywheel <support@flywheel.io>",
    "name": "form-and-annotations-exporter",
    "source": "https://gitlab.com/flywheel-io/scientific-solutions/gears/form-and-annotations-exporter",
    "url": "https://gitlab.com/flywheel-io/scientific-solutions/gears/form-and-annotations-exporter",
    "version": "0.1.5"
  },
  "invocation-schema": {
    "$schema": "http://json-schema.org/draft-04/schema#",
    "properties": {
      "config": {
        "additionalProperties": false,
        "properties": {
          "annotations-scope": {
            "default": "task",
            "enum": [
              "task",
              "non-task",
              "both",
              "none"
            ],
            "type": "string"
          },
          "debug": {
            "default": false,
            "type": "boolean"
          },
          "form-responses-scope": {
            "default": "task",
            "enum": [
              "task",
              "none"
            ],
            "type": "string"
          },
          "protocol_name": {
            "type": "string"
          },
          "read_timeout": {
            "default": 60,
            "type": "integer"
          }
        },
        "required": [
          "annotations-scope",
          "debug",
          "form-responses-scope",
          "read_timeout"
        ],
        "type": "object"
      },
      "inputs": {
        "properties": {
          "api-key": {
            "type": "object"
          }
        },
        "required": [
          "api-key"
        ],
        "type": "object"
      }
    },
    "required": [
      "config",
      "inputs"
    ],
    "title": "Invocation manifest for Form and Annotation Exporter",
    "type": "object"
  }
}
