{
  "exchange": {
    "git-commit": "ddff0337e96915c54bc16584271fbe29fdb86ee5",
    "rootfs-hash": "sha256:af5bffc6a96f890f523c5972873c4b2da3adfbf44eda6e0d0ca9d0c5066a853d",
    "rootfs-url": "docker://us-docker.pkg.dev/flywheel-exchange/gear-exchange/pennbbl-fw-heudiconv:0.2.16_0.4.2"
  },
  "gear": {
    "author": "Tinashe Michael Tapera",
    "cite": "",
    "command": "./fw_heudiconv_run.py",
    "config": {
      "action": {
        "default": "Curate",
        "description": "Curate: Apply heuristic to project. Export: Create zip of BIDS tree. Tabulate: Create a table of sequence information in a project. Clear: Clear BIDS data from project. Reproin Check: Apply the reproin heuristic to a list of reproin names to check for validity. Meta: Autogenerate BIDS metadata for project.",
        "enum": [
          "Curate",
          "Export",
          "Tabulate",
          "Clear",
          "Reproin",
          "Validate"
        ],
        "type": "string"
      },
      "dry_run": {
        "default": true,
        "description": "Run without applying changes",
        "type": "boolean"
      }
    },
    "custom": {
      "flywheel": {
        "suite": "PennBBL"
      },
      "gear-builder": {
        "category": "analysis",
        "image": "pennbbl/fw-heudiconv:0.2.16_0.4.2"
      }
    },
    "description": "HeuDiConv-style BIDS curation on Flywheel. Flywheel HeuDiConv (or fw-heudiconv, pronounced /fwuː di kɑː n(v)/) is a Python-based toolkit that leverages the flexibility and comprehensiveness of HeuDiConv to curate neuroimaging data on Flywheel into a BIDS-valid format.",
    "inputs": {
      "api_key": {
        "base": "api-key"
      },
      "heuristic": {
        "base": "file",
        "description": "Python file implementing a heudiconv heuristic",
        "optional": true
      }
    },
    "label": "Flywheel HeuDiConv",
    "license": "Other",
    "maintainer": "Tinashe Michael Tapera",
    "name": "fw-heudiconv",
    "source": "https://github.com/PennBBL/fw-heudiconv/wiki",
    "url": "https://github.com/PennBBL/fw-heudiconv",
    "version": "0.2.16_0.4.2"
  },
  "invocation-schema": {
    "$schema": "http://json-schema.org/draft-04/schema#",
    "properties": {
      "config": {
        "additionalProperties": false,
        "properties": {
          "action": {
            "default": "Curate",
            "enum": [
              "Curate",
              "Export",
              "Tabulate",
              "Clear",
              "Reproin",
              "Validate"
            ],
            "type": "string"
          },
          "dry_run": {
            "default": true,
            "type": "boolean"
          }
        },
        "required": [
          "action",
          "dry_run"
        ],
        "type": "object"
      },
      "inputs": {
        "properties": {
          "api_key": {
            "type": "object"
          },
          "heuristic": {
            "properties": {},
            "type": "object"
          }
        },
        "required": [
          "api_key"
        ],
        "type": "object"
      }
    },
    "required": [
      "config",
      "inputs"
    ],
    "title": "Invocation manifest for Flywheel HeuDiConv",
    "type": "object"
  }
}
